{
  "dependencies": [
    {
      "moduleName": "ch.qos.logback:logback-classic",
      "moduleUrl": "http://www.qos.ch",
      "moduleVersion": "1.2.11",
      "moduleLicense": "GNU Lesser General Public License",
      "moduleLicenseUrl": "http://www.gnu.org/licenses/old-licenses/lgpl-2.1.html"
    },
    {
      "moduleName": "ch.qos.logback:logback-core",
      "moduleUrl": "http://www.qos.ch",
      "moduleVersion": "1.2.11",
      "moduleLicense": "GNU Lesser General Public License",
      "moduleLicenseUrl": "http://www.gnu.org/licenses/old-licenses/lgpl-2.1.html"
    },
    {
      "moduleName": "com.amazonaws:aws-java-sdk-bom",
      "moduleVersion": "1.12.445"
    },
    {
      "moduleName": "com.azure:azure-sdk-bom",
      "moduleVersion": "1.2.11"
    },
    {
      "moduleName": "com.fasterxml.jackson.core:jackson-annotations",
      "moduleUrl": "https://github.com/FasterXML/jackson",
      "moduleVersion": "2.14.2",
      "moduleLicense": "The Apache Software License, Version 2.0",
      "moduleLicenseUrl": "https://www.apache.org/licenses/LICENSE-2.0.txt"
    },
    {
      "moduleName": "com.fasterxml.jackson.core:jackson-core",
      "moduleUrl": "https://github.com/FasterXML/jackson-core",
      "moduleVersion": "2.14.2",
      "moduleLicense": "The Apache Software License, Version 2.0",
      "moduleLicenseUrl": "https://www.apache.org/licenses/LICENSE-2.0.txt"
    },
    {
      "moduleName": "com.fasterxml.jackson.core:jackson-databind",
      "moduleUrl": "https://github.com/FasterXML/jackson",
      "moduleVersion": "2.14.2",
      "moduleLicense": "The Apache Software License, Version 2.0",
      "moduleLicenseUrl": "https://www.apache.org/licenses/LICENSE-2.0.txt"
    },
    {
      "moduleName": "com.fasterxml.jackson.datatype:jackson-datatype-jdk8",
      "moduleUrl": "https://github.com/FasterXML/jackson-modules-java8/jackson-datatype-jdk8",
      "moduleVersion": "2.14.2",
      "moduleLicense": "The Apache Software License, Version 2.0",
      "moduleLicenseUrl": "http://www.apache.org/licenses/LICENSE-2.0.txt"
    },
    {
      "moduleName": "com.fasterxml.jackson.datatype:jackson-datatype-jsr310",
      "moduleUrl": "https://github.com/FasterXML/jackson-modules-java8/jackson-datatype-jsr310",
      "moduleVersion": "2.14.2",
      "moduleLicense": "The Apache Software License, Version 2.0",
      "moduleLicenseUrl": "http://www.apache.org/licenses/LICENSE-2.0.txt"
    },
    {
      "moduleName": "com.fasterxml.jackson.module:jackson-module-kotlin",
      "moduleUrl": "https://github.com/FasterXML/jackson-module-kotlin",
      "moduleVersion": "2.14.2",
      "moduleLicense": "The Apache Software License, Version 2.0",
      "moduleLicenseUrl": "https://www.apache.org/licenses/LICENSE-2.0.txt"
    },
    {
      "moduleName": "com.fasterxml.jackson:jackson-bom",
      "moduleVersion": "2.14.2"
    },
    {
      "moduleName": "com.google.protobuf:protobuf-bom",
      "moduleVersion": "3.21.12"
    },
    {
      "moduleName": "com.oracle.coherence.ce:coherence-bom",
      "moduleVersion": "22.06.2"
    },
    {
      "moduleName": "com.typesafe:config",
      "moduleUrl": "https://github.com/lightbend/config",
      "moduleVersion": "1.4.2",
      "moduleLicense": "Apache-2.0",
      "moduleLicenseUrl": "https://www.apache.org/licenses/LICENSE-2.0"
    },
    {
      "moduleName": "io.grpc:grpc-bom",
      "moduleVersion": "1.54.0"
    },
    {
      "moduleName": "io.ktor:ktor-bom",
      "moduleVersion": "1.6.8"
    },
    {
      "moduleName": "io.micrometer:micrometer-bom",
      "moduleVersion": "1.10.5"
    },
    {
      "moduleName": "io.micronaut.aws:micronaut-aws-bom",
      "moduleVersion": "3.17.0"
    },
    {
      "moduleName": "io.micronaut.azure:micronaut-azure-bom",
      "moduleVersion": "3.10.0"
    },
    {
      "moduleName": "io.micronaut.beanvalidation:micronaut-hibernate-validator-bom",
      "moduleVersion": "3.3.0"
    },
    {
      "moduleName": "io.micronaut.cache:micronaut-cache-bom",
      "moduleVersion": "3.5.0"
    },
    {
      "moduleName": "io.micronaut.chatbots:micronaut-chatbots-bom",
      "moduleVersion": "1.0.0-M1"
    },
    {
      "moduleName": "io.micronaut.coherence:micronaut-coherence-bom",
      "moduleVersion": "3.7.2"
    },
    {
      "moduleName": "io.micronaut.crac:micronaut-crac-bom",
      "moduleVersion": "1.2.3"
    },
    {
      "moduleName": "io.micronaut.data:micronaut-data-bom",
      "moduleVersion": "3.10.0"
    },
    {
      "moduleName": "io.micronaut.discovery:micronaut-discovery-client-bom",
      "moduleVersion": "3.3.1"
    },
    {
      "moduleName": "io.micronaut.email:micronaut-email-bom",
      "moduleVersion": "1.5.0"
    },
    {
      "moduleName": "io.micronaut.flyway:micronaut-flyway-bom",
      "moduleVersion": "5.5.0"
    },
    {
      "moduleName": "io.micronaut.gcp:micronaut-gcp-bom",
      "moduleVersion": "4.10.0"
    },
    {
      "moduleName": "io.micronaut.groovy:micronaut-groovy-bom",
      "moduleVersion": "3.4.0"
    },
    {
      "moduleName": "io.micronaut.grpc:micronaut-grpc-bom",
      "moduleVersion": "3.6.0"
    },
    {
      "moduleName": "io.micronaut.jaxrs:micronaut-jaxrs-bom",
      "moduleVersion": "3.4.0"
    },
    {
      "moduleName": "io.micronaut.jmx:micronaut-jmx-bom",
      "moduleVersion": "3.2.0"
    },
    {
      "moduleName": "io.micronaut.kafka:micronaut-kafka-bom",
      "moduleVersion": "4.5.3"
    },
    {
      "moduleName": "io.micronaut.kotlin:micronaut-kotlin-bom",
      "moduleVersion": "3.2.2"
    },
    {
      "moduleName": "io.micronaut.kotlin:micronaut-kotlin-runtime",
      "moduleUrl": "https://micronaut.io",
      "moduleVersion": "3.2.2",
      "moduleLicense": "The Apache Software License, Version 2.0",
      "moduleLicenseUrl": "http://www.apache.org/licenses/LICENSE-2.0.txt"
    },
    {
      "moduleName": "io.micronaut.kubernetes:micronaut-kubernetes-bom",
      "moduleVersion": "4.0.0"
    },
    {
      "moduleName": "io.micronaut.liquibase:micronaut-liquibase-bom",
      "moduleVersion": "5.7.2"
    },
    {
      "moduleName": "io.micronaut.micrometer:micronaut-micrometer-bom",
      "moduleVersion": "4.8.3"
    },
    {
      "moduleName": "io.micronaut.microstream:micronaut-microstream-bom",
      "moduleVersion": "1.3.0"
    },
    {
      "moduleName": "io.micronaut.mongodb:micronaut-mongo-bom",
      "moduleVersion": "4.6.0"
    },
    {
      "moduleName": "io.micronaut.mqtt:micronaut-mqtt-bom",
      "moduleVersion": "2.3.0"
    },
    {
      "moduleName": "io.micronaut.objectstorage:micronaut-object-storage-bom",
      "moduleVersion": "1.1.0"
    },
    {
      "moduleName": "io.micronaut.openapi:micronaut-openapi-bom",
      "moduleVersion": "4.8.6"
    },
    {
      "moduleName": "io.micronaut.oraclecloud:micronaut-oraclecloud-bom",
      "moduleVersion": "2.3.4"
    },
    {
      "moduleName": "io.micronaut.picocli:micronaut-picocli-bom",
      "moduleVersion": "4.3.0"
    },
    {
      "moduleName": "io.micronaut.problem:micronaut-problem-json-bom",
      "moduleVersion": "2.6.0"
    },
    {
      "moduleName": "io.micronaut.r2dbc:micronaut-r2dbc-bom",
      "moduleVersion": "4.0.0"
    },
    {
      "moduleName": "io.micronaut.rabbitmq:micronaut-rabbitmq-bom",
      "moduleVersion": "3.4.1"
    },
    {
      "moduleName": "io.micronaut.reactor:micronaut-reactor-bom",
      "moduleVersion": "2.6.0"
    },
    {
      "moduleName": "io.micronaut.redis:micronaut-redis-bom",
      "moduleVersion": "5.3.2"
    },
    {
      "moduleName": "io.micronaut.rxjava2:micronaut-rxjava2-bom",
      "moduleVersion": "1.3.0"
    },
    {
      "moduleName": "io.micronaut.rxjava3:micronaut-rxjava3-bom",
      "moduleVersion": "2.4.1"
    },
    {
      "moduleName": "io.micronaut.security:micronaut-security-bom",
      "moduleVersion": "3.11.0"
    },
    {
      "moduleName": "io.micronaut.serde:micronaut-serde-bom",
      "moduleVersion": "1.5.2"
    },
    {
      "moduleName": "io.micronaut.servlet:micronaut-servlet-bom",
      "moduleVersion": "3.3.5"
    },
    {
      "moduleName": "io.micronaut.spring:micronaut-spring-bom",
      "moduleVersion": "4.5.1"
    },
    {
      "moduleName": "io.micronaut.sql:micronaut-sql-bom",
      "moduleVersion": "4.8.0"
    },
    {
      "moduleName": "io.micronaut.test:micronaut-test-bom",
      "moduleVersion": "3.9.2"
    },
    {
      "moduleName": "io.micronaut.testresources:micronaut-test-resources-bom",
      "moduleVersion": "1.2.5"
    },
    {
      "moduleName": "io.micronaut.tracing:micronaut-tracing-bom",
      "moduleVersion": "4.5.0"
    },
    {
      "moduleName": "io.micronaut.views:micronaut-views-bom",
      "moduleVersion": "3.8.2"
    },
    {
      "moduleName": "io.micronaut:micronaut-aop",
      "moduleUrl": "https://micronaut.io",
      "moduleVersion": "3.9.0",
      "moduleLicense": "The Apache Software License, Version 2.0",
      "moduleLicenseUrl": "http://www.apache.org/licenses/LICENSE-2.0.txt"
    },
    {
      "moduleName": "io.micronaut:micronaut-bom",
      "moduleVersion": "3.9.0"
    },
    {
      "moduleName": "io.micronaut:micronaut-buffer-netty",
      "moduleUrl": "https://micronaut.io",
      "moduleVersion": "3.9.0",
      "moduleLicense": "The Apache Software License, Version 2.0",
      "moduleLicenseUrl": "http://www.apache.org/licenses/LICENSE-2.0.txt"
    },
    {
      "moduleName": "io.micronaut:micronaut-context",
      "moduleUrl": "https://micronaut.io",
      "moduleVersion": "3.9.0",
      "moduleLicense": "The Apache Software License, Version 2.0",
      "moduleLicenseUrl": "http://www.apache.org/licenses/LICENSE-2.0.txt"
    },
    {
      "moduleName": "io.micronaut:micronaut-core",
      "moduleUrl": "https://micronaut.io",
      "moduleVersion": "3.9.0",
      "moduleLicense": "The Apache Software License, Version 2.0",
      "moduleLicenseUrl": "http://www.apache.org/licenses/LICENSE-2.0.txt"
    },
    {
      "moduleName": "io.micronaut:micronaut-core-reactive",
      "moduleUrl": "https://micronaut.io",
      "moduleVersion": "3.9.0",
      "moduleLicense": "The Apache Software License, Version 2.0",
      "moduleLicenseUrl": "http://www.apache.org/licenses/LICENSE-2.0.txt"
    },
    {
      "moduleName": "io.micronaut:micronaut-http",
      "moduleUrl": "https://micronaut.io",
      "moduleVersion": "3.9.0",
      "moduleLicense": "The Apache Software License, Version 2.0",
      "moduleLicenseUrl": "http://www.apache.org/licenses/LICENSE-2.0.txt"
    },
    {
      "moduleName": "io.micronaut:micronaut-http-client",
      "moduleUrl": "https://micronaut.io",
      "moduleVersion": "3.9.0",
      "moduleLicense": "The Apache Software License, Version 2.0",
      "moduleLicenseUrl": "http://www.apache.org/licenses/LICENSE-2.0.txt"
    },
    {
      "moduleName": "io.micronaut:micronaut-http-client-core",
      "moduleUrl": "https://micronaut.io",
      "moduleVersion": "3.9.0",
      "moduleLicense": "The Apache Software License, Version 2.0",
      "moduleLicenseUrl": "http://www.apache.org/licenses/LICENSE-2.0.txt"
    },
    {
      "moduleName": "io.micronaut:micronaut-http-netty",
      "moduleUrl": "https://micronaut.io",
      "moduleVersion": "3.9.0",
      "moduleLicense": "The Apache Software License, Version 2.0",
      "moduleLicenseUrl": "http://www.apache.org/licenses/LICENSE-2.0.txt"
    },
    {
      "moduleName": "io.micronaut:micronaut-http-server",
      "moduleUrl": "https://micronaut.io",
      "moduleVersion": "3.9.0",
      "moduleLicense": "The Apache Software License, Version 2.0",
      "moduleLicenseUrl": "http://www.apache.org/licenses/LICENSE-2.0.txt"
    },
    {
      "moduleName": "io.micronaut:micronaut-http-server-netty",
      "moduleUrl": "https://micronaut.io",
      "moduleVersion": "3.9.0",
      "moduleLicense": "The Apache Software License, Version 2.0",
      "moduleLicenseUrl": "http://www.apache.org/licenses/LICENSE-2.0.txt"
    },
    {
      "moduleName": "io.micronaut:micronaut-inject",
      "moduleUrl": "https://micronaut.io",
      "moduleVersion": "3.9.0",
      "moduleLicense": "The Apache Software License, Version 2.0",
      "moduleLicenseUrl": "http://www.apache.org/licenses/LICENSE-2.0.txt"
    },
    {
      "moduleName": "io.micronaut:micronaut-jackson-core",
      "moduleUrl": "https://micronaut.io",
      "moduleVersion": "3.9.0",
      "moduleLicense": "The Apache Software License, Version 2.0",
      "moduleLicenseUrl": "http://www.apache.org/licenses/LICENSE-2.0.txt"
    },
    {
      "moduleName": "io.micronaut:micronaut-jackson-databind",
      "moduleUrl": "https://micronaut.io",
      "moduleVersion": "3.9.0",
      "moduleLicense": "The Apache Software License, Version 2.0",
      "moduleLicenseUrl": "http://www.apache.org/licenses/LICENSE-2.0.txt"
    },
    {
      "moduleName": "io.micronaut:micronaut-json-core",
      "moduleUrl": "https://micronaut.io",
      "moduleVersion": "3.9.0",
      "moduleLicense": "The Apache Software License, Version 2.0",
      "moduleLicenseUrl": "http://www.apache.org/licenses/LICENSE-2.0.txt"
    },
    {
      "moduleName": "io.micronaut:micronaut-router",
      "moduleUrl": "https://micronaut.io",
      "moduleVersion": "3.9.0",
      "moduleLicense": "The Apache Software License, Version 2.0",
      "moduleLicenseUrl": "http://www.apache.org/licenses/LICENSE-2.0.txt"
    },
    {
      "moduleName": "io.micronaut:micronaut-runtime",
      "moduleUrl": "https://micronaut.io",
      "moduleVersion": "3.9.0",
      "moduleLicense": "The Apache Software License, Version 2.0",
      "moduleLicenseUrl": "http://www.apache.org/licenses/LICENSE-2.0.txt"
    },
    {
      "moduleName": "io.micronaut:micronaut-validation",
      "moduleUrl": "https://micronaut.io",
      "moduleVersion": "3.9.0",
      "moduleLicense": "The Apache Software License, Version 2.0",
      "moduleLicenseUrl": "http://www.apache.org/licenses/LICENSE-2.0.txt"
    },
    {
      "moduleName": "io.micronaut:micronaut-websocket",
      "moduleUrl": "https://micronaut.io",
      "moduleVersion": "3.9.0",
      "moduleLicense": "The Apache Software License, Version 2.0",
      "moduleLicenseUrl": "http://www.apache.org/licenses/LICENSE-2.0.txt"
    },
    {
      "moduleName": "io.netty:netty-bom",
      "moduleVersion": "4.1.91.Final"
    },
    {
      "moduleName": "io.netty:netty-buffer",
      "moduleUrl": "https://netty.io/",
      "moduleVersion": "4.1.91.Final",
      "moduleLicense": "Apache License, Version 2.0",
      "moduleLicenseUrl": "https://www.apache.org/licenses/LICENSE-2.0"
    },
    {
      "moduleName": "io.netty:netty-codec",
      "moduleUrl": "https://netty.io/",
      "moduleVersion": "4.1.91.Final",
      "moduleLicense": "Apache License, Version 2.0",
      "moduleLicenseUrl": "https://www.apache.org/licenses/LICENSE-2.0"
    },
    {
      "moduleName": "io.netty:netty-codec-http",
      "moduleUrl": "https://netty.io/",
      "moduleVersion": "4.1.91.Final",
      "moduleLicense": "Apache License, Version 2.0",
      "moduleLicenseUrl": "https://www.apache.org/licenses/LICENSE-2.0"
    },
    {
      "moduleName": "io.netty:netty-codec-http2",
      "moduleUrl": "https://netty.io/",
      "moduleVersion": "4.1.91.Final",
      "moduleLicense": "Apache License, Version 2.0",
      "moduleLicenseUrl": "https://www.apache.org/licenses/LICENSE-2.0"
    },
    {
      "moduleName": "io.netty:netty-codec-socks",
      "moduleUrl": "https://netty.io/",
      "moduleVersion": "4.1.91.Final",
      "moduleLicense": "Apache License, Version 2.0",
      "moduleLicenseUrl": "https://www.apache.org/licenses/LICENSE-2.0"
    },
    {
      "moduleName": "io.netty:netty-common",
      "moduleUrl": "https://netty.io/",
      "moduleVersion": "4.1.91.Final",
      "moduleLicense": "Apache License, Version 2.0",
      "moduleLicenseUrl": "https://www.apache.org/licenses/LICENSE-2.0"
    },
    {
      "moduleName": "io.netty:netty-handler",
      "moduleUrl": "https://netty.io/",
      "moduleVersion": "4.1.91.Final",
      "moduleLicense": "Apache License, Version 2.0",
      "moduleLicenseUrl": "https://www.apache.org/licenses/LICENSE-2.0"
    },
    {
      "moduleName": "io.netty:netty-handler-proxy",
      "moduleUrl": "https://netty.io/",
      "moduleVersion": "4.1.91.Final",
      "moduleLicense": "Apache License, Version 2.0",
      "moduleLicenseUrl": "https://www.apache.org/licenses/LICENSE-2.0"
    },
    {
      "moduleName": "io.netty:netty-resolver",
      "moduleUrl": "https://netty.io/",
      "moduleVersion": "4.1.91.Final",
      "moduleLicense": "Apache License, Version 2.0",
      "moduleLicenseUrl": "https://www.apache.org/licenses/LICENSE-2.0"
    },
    {
      "moduleName": "io.netty:netty-transport",
      "moduleUrl": "https://netty.io/",
      "moduleVersion": "4.1.91.Final",
      "moduleLicense": "Apache License, Version 2.0",
      "moduleLicenseUrl": "https://www.apache.org/licenses/LICENSE-2.0"
    },
    {
      "moduleName": "io.netty:netty-transport-native-unix-common",
      "moduleUrl": "https://netty.io/",
      "moduleVersion": "4.1.91.Final",
      "moduleLicense": "Apache License, Version 2.0",
      "moduleLicenseUrl": "https://www.apache.org/licenses/LICENSE-2.0"
    },
    {
      "moduleName": "io.opentelemetry.instrumentation:opentelemetry-instrumentation-bom",
      "moduleVersion": "1.19.2"
    },
    {
      "moduleName": "io.opentelemetry.instrumentation:opentelemetry-instrumentation-bom-alpha",
      "moduleVersion": "1.19.2-alpha"
    },
    {
      "moduleName": "io.opentelemetry:opentelemetry-bom",
      "moduleVersion": "1.19.0"
    },
    {
      "moduleName": "io.opentelemetry:opentelemetry-bom-alpha",
      "moduleVersion": "1.19.0-alpha"
    },
    {
      "moduleName": "io.projectreactor:reactor-core",
      "moduleUrl": "https://github.com/reactor/reactor-core",
      "moduleVersion": "3.5.0",
      "moduleLicense": "Apache License, Version 2.0",
      "moduleLicenseUrl": "https://www.apache.org/licenses/LICENSE-2.0.txt"
    },
    {
      "moduleName": "io.rest-assured:rest-assured-bom",
      "moduleVersion": "5.3.0"
    },
    {
      "moduleName": "io.zipkin.brave:brave-bom",
      "moduleVersion": "5.14.1"
    },
    {
      "moduleName": "io.zipkin.reporter2:zipkin-reporter-bom",
      "moduleVersion": "2.16.3"
    },
    {
      "moduleName": "jakarta.annotation:jakarta.annotation-api",
      "moduleUrl": "https://www.eclipse.org",
      "moduleVersion": "2.1.1",
      "moduleLicense": "GPL2 w/ CPE",
      "moduleLicenseUrl": "https://www.gnu.org/software/classpath/license.html"
    },
    {
      "moduleName": "jakarta.inject:jakarta.inject-api",
      "moduleUrl": "https://www.eclipse.org",
      "moduleVersion": "2.0.1",
      "moduleLicense": "The Apache Software License, Version 2.0",
      "moduleLicenseUrl": "http://www.apache.org/licenses/LICENSE-2.0.txt"
    },
    {
      "moduleName": "javax.annotation:javax.annotation-api",
      "moduleUrl": "https://javaee.github.io/glassfish",
      "moduleVersion": "1.3.2",
      "moduleLicense": "COMMON DEVELOPMENT AND DISTRIBUTION LICENSE (CDDL) Version 1.0",
      "moduleLicenseUrl": "https://opensource.org/licenses/CDDL-1.0"
    },
    {
      "moduleName": "javax.validation:validation-api",
      "moduleUrl": "http://beanvalidation.org",
      "moduleVersion": "2.0.1.Final",
      "moduleLicense": "Apache License, Version 2.0",
      "moduleLicenseUrl": "https://www.apache.org/licenses/LICENSE-2.0"
    },
    {
      "moduleName": "org.apache.logging.log4j:log4j-bom",
      "moduleVersion": "2.19.0"
    },
    {
      "moduleName": "org.codehaus.groovy:groovy-bom",
      "moduleVersion": "3.0.13"
    },
    {
      "moduleName": "org.jdbi:jdbi3-bom",
      "moduleVersion": "3.30.0"
    },
    {
      "moduleName": "org.jetbrains.kotlin:kotlin-bom",
      "moduleVersion": "1.6.21"
    },
    {
      "moduleName": "org.jetbrains.kotlin:kotlin-reflect",
      "moduleUrl": "https://kotlinlang.org/",
      "moduleVersion": "1.8.21",
      "moduleLicense": "The Apache License, Version 2.0",
      "moduleLicenseUrl": "http://www.apache.org/licenses/LICENSE-2.0.txt"
    },
    {
      "moduleName": "org.jetbrains.kotlin:kotlin-stdlib",
      "moduleUrl": "https://kotlinlang.org/",
      "moduleVersion": "1.8.21",
      "moduleLicense": "The Apache License, Version 2.0",
      "moduleLicenseUrl": "http://www.apache.org/licenses/LICENSE-2.0.txt"
    },
    {
      "moduleName": "org.jetbrains.kotlin:kotlin-stdlib-common",
      "moduleUrl": "https://kotlinlang.org/",
      "moduleVersion": "1.8.21",
      "moduleLicense": "The Apache License, Version 2.0",
      "moduleLicenseUrl": "http://www.apache.org/licenses/LICENSE-2.0.txt"
    },
    {
      "moduleName": "org.jetbrains.kotlin:kotlin-stdlib-jdk7",
      "moduleUrl": "https://kotlinlang.org/",
      "moduleVersion": "1.8.21",
      "moduleLicense": "The Apache License, Version 2.0",
      "moduleLicenseUrl": "http://www.apache.org/licenses/LICENSE-2.0.txt"
    },
    {
      "moduleName": "org.jetbrains.kotlin:kotlin-stdlib-jdk8",
      "moduleUrl": "https://kotlinlang.org/",
      "moduleVersion": "1.8.21",
      "moduleLicense": "The Apache License, Version 2.0",
      "moduleLicenseUrl": "http://www.apache.org/licenses/LICENSE-2.0.txt"
    },
    {
      "moduleName": "org.jetbrains.kotlinx:kotlinx-coroutines-bom",
      "moduleVersion": "1.5.1"
    },
    {
      "moduleName": "org.jetbrains:annotations",
      "moduleUrl": "http://www.jetbrains.org",
      "moduleVersion": "13.0",
      "moduleLicense": "The Apache Software License, Version 2.0",
      "moduleLicenseUrl": "http://www.apache.org/licenses/LICENSE-2.0.txt"
    },
    {
      "moduleName": "org.junit:junit-bom",
      "moduleVersion": "5.9.2"
    },
    {
      "moduleName": "org.reactivestreams:reactive-streams",
      "moduleUrl": "http://www.reactive-streams.org/",
      "moduleVersion": "1.0.4",
      "moduleLicense": "MIT-0",
      "moduleLicenseUrl": "https://spdx.org/licenses/MIT-0.html"
    },
    {
      "moduleName": "org.slf4j:slf4j-api",
      "moduleUrl": "http://www.slf4j.org",
      "moduleVersion": "1.7.36",
      "moduleLicense": "MIT License",
      "moduleLicenseUrl": "http://www.opensource.org/licenses/mit-license.php"
    },
    {
      "moduleName": "org.spockframework:spock-bom",
      "moduleVersion": "2.1-groovy-3.0"
    },
    {
      "moduleName": "org.springframework:spring-framework-bom",
      "moduleVersion": "5.3.25"
    },
    {
      "moduleName": "org.testcontainers:testcontainers-bom",
      "moduleVersion": "1.17.6"
    },
    {
      "moduleName": "org.yaml:snakeyaml",
      "moduleUrl": "https://bitbucket.org/snakeyaml/snakeyaml",
      "moduleVersion": "2.0",
      "moduleLicense": "Apache License, Version 2.0",
      "moduleLicenseUrl": "http://www.apache.org/licenses/LICENSE-2.0.txt"
    },
    {
      "moduleName": "software.amazon.awssdk:bom",
      "moduleVersion": "2.20.42"
    }
  ]
}